{
"units" : [
        
    {
        "type"       : "marine",
        
        "components" : [
            {
                "compname"   : "vitals",                
                "hp"     : 150, 
                "mp"     : 0, 
                "xp"     : 0, 
                "weapon" : "marine rifle",
                "lvl"    : 1,
                "type"   : "infantry"

            },
            {
                "sprite" : {
                    "images" : "marine.pak",
                    "states"  : [
                        "default" : "marine-default",
                        "moving"  : "marine-moving",
                        "attack"  : "marine-attacking"
                    ]
                }
            }

    },
    {
        "type"     : "mech",
        "components" : [
            {
                "compname" : "vitals",
                "hp"       : 350,
                "mp"       : 0,
                "xp"       : 0,
                "weapon"   : "gauss cannon",
                "lvl"      : 1,
                "type"     : "vehicle"
            },
            {
                "compname" : "sprite",
                "images"   : "mech.pak",
                "states"   : [
                    "default" : "mech-default",
                    "moving"  : "mech-moving",
                    "attack"  : "mech-attacking"
                ]
            }
        ]

    },
    {
        "type"     : "artillery cannon",

    }
]
}
